{
    "NODE_ENV": "development",
    "HOST": "localhost",
    "PORT": 3030,

    "DB_HOST": "localhost",
    "DB_PORT":"3306",

    "DB_USER": "root",
    "DB_PASSWORD": "qwerty",
    "DB_NAME": "e_bank",
    "APP_SECRET": "supercalifragilisticexpialidocious",

    "ACCESS_TOKEN_EXPIRATION": "2h",
    "REFRESH_TOKEN_EXPIRATION": "60d"
}
